Analysis and Visualization of large temporal data
…
.pull-right[
* construction of cyclic granularities and cyclic calendar algebra 
* check feasibility through harmony/clash
* select significant harmonies and rank them
* recommend prospective probability distributions 
]
---
class: top left

## An example : Electricity smart meter data

<i><small>Data source</i></small> : [<small><i>Department of the Environment and Energy, Australia</i></small>](https://data.gov.au/dataset/4e21dea3-9b87-4610-94c7-15a8a77907ef)

```
## # A tsibble: 293,874 x 3 [30m] <UTC>
## # Key:       customer_id [10]
##    customer_id reading_datetime    general_supply_kwh
##    <chr>       <dttm>                           <dbl>
##  1 10006414    2012-02-10 08:00:00              0.141
##  2 10006414    2012-02-10 08:30:00              0.088
##  3 10006414    2012-02-10 09:00:00              0.078
##  4 10006414    2012-02-10 09:30:00              0.151
##  5 10006414    2012-02-10 10:00:00              0.146
##  6 10006414    2012-02-10 10:30:00              0.077
##  7 10006414    2012-02-10 11:00:00              0.052
##  8 10006414    2012-02-10 11:30:00              0.055
##  9 10006414    2012-02-10 12:00:00              0.055
## 10 10006414    2012-02-10 12:30:00              0.252
## # … with 293,864 more rows
```
…
